1	ALT	SER	20	U/L	22/05/2019 09:24:50
1	AST	SER	37	U/L	22/05/2019 09:25:35
1	CHOLESTEROL	SER	7.73	mmol/L	22/05/2019 09:25:05
1	CREATININE	SER	112.1	umol/L	22/05/2019 10:23:50
1	GLUCOSE	SER	5.59	umol/L	22/05/2019 09:25:20
1	IRON FERROZINE	SER	18.3	umol/L	22/05/2019 09:26:06
1	TRIGLYCERIDES	SER	3.28	umol/L	22/05/2019 09:25:51
1	UREA UV	SER	4.8	mmol/L	22/05/2019 09:23:36
10	ALT	SER	12	U/L	22/05/2019 10:21:35
10	AST	SER	26	U/L	22/05/2019 10:22:20
10	CHOLESTEROL	SER	5.61	mmol/L	22/05/2019 10:21:50
10	CREATININE	SER	78.8	umol/L	22/05/2019 10:20:05
10	GLUCOSE	SER	5.02	umol/L	22/05/2019 10:22:05
10	IRON FERROZINE	SER	13.6	umol/L	22/05/2019 10:22:50
10	TRIGLYCERIDES	SER	0.69	umol/L	22/05/2019 10:22:35
10	UREA UV	SER	4.8	mmol/L	22/05/2019 10:20:20
11	GLUCOSE	SER	4.87	umol/L	22/05/2019 10:24:21
11	IRON FERROZINE	SER	43.6	umol/L	22/05/2019 10:25:21
13	ALT	SER	23	U/L	22/05/2019 10:25:36
13	AST	SER	15	U/L	22/05/2019 10:25:51
13	CHOL HDL DIRECT	SER	1.96	mg/dL	22/05/2019 10:29:37
13	CHOLESTEROL	SER	4.72	mmol/L	22/05/2019 10:25:06
13	CREATININE	SER	92.9	umol/L	22/05/2019 10:23:36
13	GLUCOSE	SER	6.70	umol/L	22/05/2019 10:25:51
13	IRON FERROZINE	SER	27.3	umol/L	22/05/2019 10:26:06
13	TRIGLYCERIDES	SER	1.28	umol/L	22/05/2019 10:25:36
13	UREA UV	SER	6.7	mmol/L	22/05/2019 10:27:21
14	ALT	SER	21	U/L	22/05/2019 10:31:07
14	AST	SER	28	U/L	22/05/2019 10:31:53
14	CHOLESTEROL	SER	5.20	mmol/L	22/05/2019 10:31:22
14	CREATININE	SER	90.3	umol/L	22/05/2019 10:29:38
14	GLUCOSE	SER	5.70	umol/L	22/05/2019 10:31:37
14	IRON FERROZINE	SER	16.2	umol/L	22/05/2019 10:32:23
14	TRIGLYCERIDES	SER	1.52	umol/L	22/05/2019 10:32:08
14	UREA UV	SER	3.9	mmol/L	22/05/2019 10:29:39
15	ALT	SER	17	U/L	22/05/2019 10:33:23
15	AST	SER	22	U/L	22/05/2019 10:34:08
15	CHOLESTEROL	SER	5.43	mmol/L	22/05/2019 10:33:38
15	CREATININE	SER	114.2	umol/L	22/05/2019 10:31:53
15	GLUCOSE	SER	7.23	umol/L	22/05/2019 10:33:53
15	IRON FERROZINE	SER	27.8	umol/L	22/05/2019 10:34:38
15	TRIGLYCERIDES	SER	2.18	umol/L	22/05/2019 10:34:23
15	UREA UV	SER	6.2	mmol/L	22/05/2019 10:31:54
16	ALT	SER	29	U/L	22/05/2019 10:35:38
16	AST	SER	31	U/L	22/05/2019 10:36:24
16	CHOLESTEROL	SER	5.12	mmol/L	22/05/2019 10:35:53
16	CREATININE	SER	97.8	umol/L	22/05/2019 10:34:09
16	GLUCOSE	SER	10.58	umol/L	22/05/2019 11:21:34
16	IRON FERROZINE	SER	5.2	umol/L	22/05/2019 10:36:54
16	TRIGLYCERIDES	SER	3.72	umol/L	22/05/2019 10:36:39
16	UREA UV	SER	4.2	mmol/L	22/05/2019 10:34:09
17	ALT	SER	115	U/L	22/05/2019 11:21:20
17	AST	SER	128	U/L	22/05/2019 11:21:04
17	CHOLESTEROL	SER	5.04	mmol/L	22/05/2019 10:38:09
17	CREATININE	SER	123.4	umol/L	22/05/2019 11:19:19
17	GLUCOSE	SER	5.64	umol/L	22/05/2019 10:38:24
17	IRON FERROZINE	SER	8.6	umol/L	22/05/2019 10:39:09
17	TRIGLYCERIDES	SER	1.68	umol/L	22/05/2019 10:38:54
17	UREA UV	SER	6.3	mmol/L	22/05/2019 10:36:25
18	ALT	SER	13	U/L	22/05/2019 11:22:20
18	AST	SER	20	U/L	22/05/2019 11:22:50
18	CHOLESTEROL	SER	7.05	mmol/L	22/05/2019 11:21:19
18	CREATININE	SER	82.9	umol/L	22/05/2019 11:20:34
18	GLUCOSE	SER	5.37	umol/L	22/05/2019 11:22:50
18	IRON FERROZINE	SER	12.7	umol/L	22/05/2019 11:22:20
18	TRIGLYCERIDES	SER	1.97	umol/L	22/05/2019 11:23:20
18	UREA UV	SER	3.7	mmol/L	22/05/2019 11:20:35
19	ALT	SER	6	U/L	22/05/2019 11:24:20
19	AST	SER	14	U/L	22/05/2019 11:25:05
19	CHOLESTEROL	SER	4.25	mmol/L	22/05/2019 11:24:35
19	CREATININE	SER	77.2	umol/L	22/05/2019 11:22:51
19	GLUCOSE	SER	4.57	umol/L	22/05/2019 11:24:50
19	IRON FERROZINE	SER	13.3	umol/L	22/05/2019 11:25:35
19	TRIGLYCERIDES	SER	0.19	umol/L	22/05/2019 12:17:11
19	UREA UV	SER	2.1	mmol/L	22/05/2019 11:22:51
2	ALT	SER	8	U/L	22/05/2019 09:27:21
2	AST	SER	18	U/L	22/05/2019 09:28:06
2	CHOLESTEROL	SER	4.23	mmol/L	22/05/2019 09:27:36
2	CREATININE	SER	68.5	umol/L	22/05/2019 10:24:05
2	GLUCOSE	SER	5.57	umol/L	22/05/2019 09:27:51
2	IRON FERROZINE	SER	14.7	umol/L	22/05/2019 09:28:36
2	TRIGLYCERIDES	SER	0.18	umol/L	22/05/2019 10:07:31
2	UREA UV	SER	3.3	mmol/L	22/05/2019 09:25:52
20	ALT	SER	14	U/L	22/05/2019 11:26:36
20	AST	SER	30	U/L	22/05/2019 11:27:21
20	CHOLESTEROL	SER	4.82	mmol/L	22/05/2019 11:26:51
20	CREATININE	SER	70.1	umol/L	22/05/2019 11:25:06
20	GLUCOSE	SER	4.51	umol/L	22/05/2019 11:27:06
20	IRON FERROZINE	SER	16.0	umol/L	22/05/2019 11:27:51
20	TRIGLYCERIDES	SER	0.94	umol/L	22/05/2019 11:27:36
20	UREA UV	SER	3.7	mmol/L	22/05/2019 11:25:06
21	ALT	SER	19	U/L	22/05/2019 11:29:52
21	AST	SER	25	U/L	22/05/2019 11:30:07
21	CHOL HDL DIRECT	SER	1.96	mg/dL	22/05/2019 11:33:53
21	CHOLESTEROL	SER	5.54	mmol/L	22/05/2019 11:29:21
21	CREATININE	SER	113.8	umol/L	22/05/2019 11:27:52
21	GLUCOSE	SER	7.06	umol/L	22/05/2019 11:30:06
21	IRON FERROZINE	SER	17.2	umol/L	22/05/2019 11:30:22
21	TRIGLYCERIDES	SER	1.16	umol/L	22/05/2019 11:29:36
21	UREA UV	SER	7.8	mmol/L	22/05/2019 11:27:53
21	URIC ACID	SER	382	umol/L	22/05/2019 11:29:51
22	ALT	SER	13	U/L	22/05/2019 11:31:37
22	AST	SER	22	U/L	22/05/2019 11:32:22
22	CHOLESTEROL	SER	4.01	mmol/L	22/05/2019 11:31:52
22	CREATININE	SER	60.7	umol/L	22/05/2019 11:30:08
22	GLUCOSE	SER	6.03	umol/L	22/05/2019 11:32:07
22	IRON FERROZINE	SER	17.9	umol/L	22/05/2019 11:32:52
22	TRIGLYCERIDES	SER	0.55	umol/L	22/05/2019 11:32:37
22	UREA UV	SER	5.0	mmol/L	22/05/2019 11:30:08
23	GLUCOSE	SER	7.90	umol/L	22/05/2019 11:34:23
24	ALT	SER	30	U/L	22/05/2019 11:34:38
24	AST	SER	24	U/L	22/05/2019 11:35:23
24	CHOLESTEROL	SER	5.80	mmol/L	22/05/2019 11:34:53
24	CREATININE	SER	76.2	umol/L	22/05/2019 11:33:07
24	GLUCOSE	SER	6.04	umol/L	22/05/2019 11:35:08
24	IRON FERROZINE	SER	22.4	umol/L	22/05/2019 11:35:53
24	TRIGLYCERIDES	SER	2.16	umol/L	22/05/2019 11:35:38
24	UREA UV	SER	4.2	mmol/L	22/05/2019 11:33:08
25	ALT	SER	15	U/L	22/05/2019 11:48:26
25	AST	SER	24	U/L	22/05/2019 11:49:11
25	CHOLESTEROL	SER	4.81	mmol/L	22/05/2019 11:48:41
25	CREATININE	SER	83.5	umol/L	22/05/2019 11:46:56
25	GLUCOSE	SER	5.72	umol/L	22/05/2019 11:48:56
25	IRON FERROZINE	SER	12.5	umol/L	22/05/2019 11:49:41
25	TRIGLYCERIDES	SER	1.07	umol/L	22/05/2019 11:49:26
25	UREA UV	SER	4.9	mmol/L	22/05/2019 12:34:12
26	ALT	SER	14	U/L	22/05/2019 11:36:53
26	AST	SER	20	U/L	22/05/2019 11:37:39
26	CHOLESTEROL	SER	6.17	mmol/L	22/05/2019 11:37:08
26	CREATININE	SER	112.3	umol/L	22/05/2019 11:35:24
26	GLUCOSE	SER	9.28	umol/L	22/05/2019 11:37:23
26	IRON FERROZINE	SER	10.3	umol/L	22/05/2019 11:38:09
26	TRIGLYCERIDES	SER	5.94	umol/L	22/05/2019 12:17:26
26	UREA UV	SER	6.0	mmol/L	22/05/2019 11:35:24
28	CRP	SER	0.31	mg/dL	22/05/2019 11:46:10
29	ALT	SER	15	U/L	22/05/2019 11:39:09
29	AST	SER	23	U/L	22/05/2019 11:39:54
29	CHOLESTEROL	SER	7.22	mmol/L	22/05/2019 11:39:24
29	CREATININE	SER	78.6	umol/L	22/05/2019 11:37:39
29	GLUCOSE	SER	4.85	umol/L	22/05/2019 11:39:39
29	IRON FERROZINE	SER	24.5	umol/L	22/05/2019 11:40:24
29	TRIGLYCERIDES	SER	2.39	umol/L	22/05/2019 11:40:09
29	UREA UV	SER	2.9	mmol/L	22/05/2019 11:37:40
3	ALT	SER	14	U/L	22/05/2019 09:30:07
3	AST	SER	19	U/L	22/05/2019 09:30:37
3	CHOL HDL DIRECT	SER	2.04	mg/dL	22/05/2019 09:34:37
3	CHOLESTEROL	SER	4.86	mmol/L	22/05/2019 09:30:07
3	CREATININE	SER	66.7	umol/L	22/05/2019 11:17:34
3	GLUCOSE	SER	6.54	umol/L	22/05/2019 09:30:37
3	IRON FERROZINE	SER	29.4	umol/L	22/05/2019 10:09:01
3	TRIGLYCERIDES	SER	0.68	umol/L	22/05/2019 09:30:22
3	UREA UV	SER	2.0	mmol/L	22/05/2019 09:28:22
30	ALT	SER	34	U/L	22/05/2019 11:41:55
30	AST	SER	26	U/L	22/05/2019 11:42:25
30	CHOL HDL DIRECT	SER	0.89	mg/dL	22/05/2019 11:46:25
30	CHOLESTEROL	SER	4.17	mmol/L	22/05/2019 11:41:54
30	CREATININE	SER	112.1	umol/L	22/05/2019 11:40:10
30	GLUCOSE	SER	9.81	umol/L	22/05/2019 11:42:25
30	IRON FERROZINE	SER	12.6	umol/L	22/05/2019 11:42:55
30	TRIGLYCERIDES	SER	8.08	umol/L	22/05/2019 12:17:41
30	UREA UV	SER	5.9	mmol/L	22/05/2019 11:40:10
31	ALT	SER	77	U/L	22/05/2019 12:17:11
31	AST	SER	53	U/L	22/05/2019 12:17:26
31	CHOLESTEROL	SER	5.50	mmol/L	22/05/2019 11:44:10
31	CREATININE	SER	105.0	umol/L	22/05/2019 11:42:26
31	GLUCOSE	SER	5.22	umol/L	22/05/2019 11:44:25
31	IRON FERROZINE	SER	17.6	umol/L	22/05/2019 11:45:10
31	TRIGLYCERIDES	SER	2.61	umol/L	22/05/2019 11:44:55
31	UREA UV	SER	5.0	mmol/L	22/05/2019 12:14:56
34	GLUCOSE	SER	6.75	umol/L	22/05/2019 12:18:57
34	IRON FERROZINE	SER	11.3	umol/L	22/05/2019 12:19:57
35	ALT	SER	26	U/L	22/05/2019 12:20:13
35	AST	SER	26	U/L	22/05/2019 12:20:28
35	CHOL HDL DIRECT	SER	1.34	mg/dL	22/05/2019 12:24:13
35	CHOLESTEROL	SER	3.10	mmol/L	22/05/2019 12:19:42
35	CREATININE	SER	108.6	umol/L	22/05/2019 12:18:12
35	GLUCOSE	SER	11.04	umol/L	22/05/2019 12:20:27
35	IRON FERROZINE	SER	13.2	umol/L	22/05/2019 12:20:42
35	TRIGLYCERIDES	SER	2.82	umol/L	22/05/2019 12:20:12
35	UREA UV	SER	5.4	mmol/L	22/05/2019 12:18:12
36	ALT	SER	30	U/L	22/05/2019 12:21:57
36	AST	SER	21	U/L	22/05/2019 12:22:42
36	CHOLESTEROL	SER	4.02	mmol/L	22/05/2019 12:22:12
36	CREATININE	SER	70.0	umol/L	22/05/2019 12:33:57
36	GLUCOSE	SER	4.76	umol/L	22/05/2019 12:22:27
36	IRON FERROZINE	SER	11.9	umol/L	22/05/2019 12:23:12
36	TRIGLYCERIDES	SER	0.56	umol/L	22/05/2019 12:22:57
36	UREA UV	SER	4.4	mmol/L	22/05/2019 12:33:57
4	GLUCOSE	SER	8.52	umol/L	22/05/2019 09:32:07
5	ALT	SER	5	U/L	22/05/2019 10:07:16
5	AST	SER	15	U/L	22/05/2019 10:06:31
5	CHOLESTEROL	SER	8.57	mmol/L	22/05/2019 10:08:16
5	CREATININE	SER	90.2	umol/L	22/05/2019 10:05:30
5	GLUCOSE	SER	5.70	umol/L	22/05/2019 09:32:52
5	IRON FERROZINE	SER	13.3	umol/L	22/05/2019 09:33:37
5	TRIGLYCERIDES	SER	1.47	umol/L	22/05/2019 09:33:22
5	UREA UV	SER	4.7	mmol/L	22/05/2019 10:05:45
6	ALT	SER	21	U/L	22/05/2019 10:14:03
6	AST	SER	24	U/L	22/05/2019 10:13:48
6	BILIRUBIN TOTAL	SER	8.8	umol/L	22/05/2019 10:17:34
6	CHOL HDL DIRECT	SER	2.14	mg/dL	22/05/2019 10:17:49
6	CHOLESTEROL	SER	7.55	mmol/L	22/05/2019 10:13:17
6	CREATININE	SER	67.1	umol/L	22/05/2019 10:11:47
6	GLUCOSE	SER	5.17	umol/L	22/05/2019 10:14:03
6	IRON FERROZINE	SER	16.7	umol/L	22/05/2019 10:14:18
6	TRIGLYCERIDES	SER	2.30	umol/L	22/05/2019 10:13:47
6	UREA UV	SER	3.5	mmol/L	22/05/2019 10:11:47
7	ALT	SER	47	U/L	22/05/2019 10:15:33
7	AST	SER	27	U/L	22/05/2019 10:16:18
7	CHOLESTEROL	SER	5.42	mmol/L	22/05/2019 10:15:48
7	CREATININE	SER	105.9	umol/L	22/05/2019 10:14:48
7	CRP	SER	1.09	mg/dL	22/05/2019 10:15:18
7	GLUCOSE	SER	5.19	umol/L	22/05/2019 10:16:03
7	IRON FERROZINE	SER	5.5	umol/L	22/05/2019 10:16:48
7	TRIGLYCERIDES	SER	0.65	umol/L	22/05/2019 10:16:33
7	UREA UV	SER	6.4	mmol/L	22/05/2019 10:14:48
8	CHOL HDL DIRECT	SER	1.47	mg/dL	22/05/2019 10:23:35
8	CHOLESTEROL	SER	8.64	mmol/L	22/05/2019 10:29:22
8	TRIGLYCERIDES	SER	3.29	umol/L	22/05/2019 10:29:07
9	ALT	SER	67	U/L	22/05/2019 10:29:38
9	AST	SER	44	U/L	22/05/2019 10:29:23
9	CHOLESTEROL	SER	6.68	mmol/L	22/05/2019 10:19:34
9	CREATININE	SER	96.9	umol/L	22/05/2019 10:17:50
9	GLUCOSE	SER	5.53	umol/L	22/05/2019 10:19:49
9	IRON FERROZINE	SER	18.8	umol/L	22/05/2019 10:20:34
9	TRIGLYCERIDES	SER	5.01	umol/L	22/05/2019 10:30:37
9	UREA UV	SER	3.9	mmol/L	22/05/2019 10:17:50
